,date,description,state
0,2018-06-04,Rest,COMPLETED
1,2018-06-05,Run 30-40min / Z2,COMPLETED
2,2018-06-05,Swim A,COMPLETED
3,2018-06-06,Bike 40-45min / Z2 -> Run 20-30min / Z2,COMPLETED
4,2018-06-07,Swim A,COMPLETED
5,2018-06-07,Bike 40-50min / Z2,COMPLETED
6,2018-06-08,Rest,COMPLETED
7,2018-06-09,Bike 45-60min / Z2,COMPLETED
8,2018-06-10,Run 50-60min / Z2,COMPLETED
9,2018-06-11,Rest,COMPLETED
10,2018-06-12,Run 30-40min / Z2,COMPLETED
11,2018-06-12,Swim A,COMPLETED
12,2018-06-13,Bike 40-45min / Z2 -> Run 20-30min / Z2,COMPLETED
14,2018-06-14,Swim A,COMPLETED
13,2018-06-14,Bike 35-45min / Z2,COMPLETED
15,2018-06-15,Run 30-40min / Z2,COMPLETED
16,2018-06-16,Bike 50-60min / Z2,COMPLETED
17,2018-06-17,Run 50-60min / Z2,COMPLETED
18,2018-06-18,Rest,COMPLETED
19,2018-06-19,Swim B,COMPLETED
20,2018-06-19,Run 30-40min / Z2,COMPLETED
21,2018-06-20,Bike 40-45min / Z2 -> Run 20-30min / Z2,COMPLETED
22,2018-06-21,Bike 50-60min / Z2,COMPLETED
23,2018-06-21,Swim A,COMPLETED
24,2018-06-22,Rest,COMPLETED
25,2018-06-23,Bike 90-120min / Z3,COMPLETED
26,2018-06-24,Run 50-60min / Z3,COMPLETED
27,2018-06-25,Rest,COMPLETED
28,2018-06-26,Run 50-60min / Z2,COMPLETED
29,2018-06-26,Swim B,COMPLETED
30,2018-06-27,Bike 40-45min / Z2 -> Run 20-30min / Z2,COMPLETED
31,2018-06-28,Swim A,FAILED
32,2018-06-28,Bike 50-60min / Z2,FAILED
33,2018-06-29,Run 50-60min / Z2,FAILED
34,2018-06-30,Bike 100-120min / Z3,FAILED
35,2018-07-01,Run 50-60min / Z2,FAILED
36,2018-07-02,Rest,FAILED
37,2018-07-03,Swim A,FAILED
38,2018-07-03,Run 30-40min / Z2,FAILED
39,2018-07-04,Rest,FAILED
41,2018-07-05,Swim A,FAILED
40,2018-07-05,Bike 55-60min / Z2,FAILED
42,2018-07-06,Rest,FAILED
43,2018-07-07,Bike 60min / Z2,FAILED
44,2018-07-08,Run 50-60min / Z2,FAILED
45,2018-07-08,Bike 30-40min / Z2,FAILED
46,2018-07-09,Rest,FAILED
47,2018-07-10,Swim B,FAILED
48,2018-07-10,Run 50-60min / Z2,FAILED
49,2018-07-11,Bike 60min / Z2 -> Run 30-40min / Z2,FAILED
50,2018-07-12,Bike 60-75min / Z4,FAILED
51,2018-07-12,Swim B,FAILED
52,2018-07-13,Run 30-40min / Z2,FAILED
53,2018-07-14,Bike 90-120min / Z2,FAILED
54,2018-07-15,Run 55-60min / Z3,FAILED
55,2018-07-16,Rest,FAILED
57,2018-07-17,Swim C,FAILED
56,2018-07-17,Run 30-40min / Z2,FAILED
58,2018-07-18,Bike 30-45min / Z2 -> Run 20-30min / Z2,FAILED
59,2018-07-19,Swim B,FAILED
60,2018-07-19,Bike 60-75min / Z4,FAILED
61,2018-07-20,Run 45-60min / Z2,FAILED
62,2018-07-21,Bike 90min / Z2-3 -> Run 45-60min / Z2,FAILED
63,2018-07-21,Swim _,FAILED
64,2018-07-22,Run 50-60min / Z2,FAILED
65,2018-07-23,Rest,FAILED
66,2018-07-24,Swim C,FAILED
67,2018-07-24,"Run 30-40min /Z2\, with intervals (5 x 1 Z3-4 @ 1min rest)",FAILED
68,2018-07-25,Rest,FAILED
69,2018-07-26,Bike 60-75min / Z4,FAILED
70,2018-07-26,Swim D,FAILED
71,2018-07-27,Run 30-40min / Z3,FAILED
72,2018-07-28,Swim _,FAILED
73,2018-07-28,Bike 100-120min / Z3,FAILED
74,2018-07-29,Run 60min / Z3,FAILED
75,2018-07-30,Rest,FAILED
76,2018-07-31,Swim D,FAILED
77,2018-07-31,"Run 40-50 min / Z2\, with intervals (5 x 1 min\, Z3-4 @ 1 min rest)",FAILED
78,2018-08-01,Bike 45-60min / Z3 -> Run 30-40min / Z2,FAILED
79,2018-08-02,Bike 60-75min / Z2,FAILED
80,2018-08-02,Swim D,FAILED
81,2018-08-03,Rest,FAILED
82,2018-08-04,Swim _,FAILED
83,2018-08-04,Bike 90min / Z2-3 -> Run 45-60min / Z2,FAILED
84,2018-08-05,Bike 30-45min / Z2,FAILED
85,2018-08-06,Rest,FAILED
87,2018-08-07,"Run 30-40min / Z2\, with intervals (5 x 1 min\, Z3-4 @ 1min rest)",FAILED
86,2018-08-07,Swim E,FAILED
88,2018-08-08,Bike 45-60min / Z2 -> Run 30-40min / Z2,FAILED
89,2018-08-09,Bike 60min / Z2,FAILED
90,2018-08-09,Swim E,FAILED
91,2018-08-10,Rest,FAILED
92,2018-08-11,Bike steady 25miles / Z2,FAILED
93,2018-08-11,Swim _,FAILED
94,2018-08-12,Run 40min / Z2,FAILED
95,2018-08-13,Rest,FAILED
96,2018-08-14,Swim E,FAILED
97,2018-08-14,Run 30min / Z2,FAILED
98,2018-08-15,Bike 30-45min / Z2 -> Run 20min / Z2,FAILED
100,2018-08-16,Bike 30-45min / Z2,FAILED
99,2018-08-16,Swim 1000yd easy,FAILED
101,2018-08-17,Rest,FAILED
102,2018-08-18,Swim _,FAILED
103,2018-08-18,Bike 45-60min / Z2,FAILED
104,2018-08-19,Run 45min / Z3,FAILED
105,2018-08-20,Rest,FAILED
106,2018-08-21,Run 30min / Z2,FAILED
107,2018-08-21,Swim 1000yd easy,FAILED
108,2018-08-22,Bike 40min / Z2 -> Run 20min / Z2,FAILED
109,2018-08-23,Rest,FAILED
111,2018-08-24,Run 15min / Z2,FAILED
110,2018-08-24,Bike 20min / Z2,FAILED
113,2018-08-25,Run 10-15min / Z2,FAILED
114,2018-08-25,Bike 10-15min / Z2,FAILED
112,2018-08-25,Race Prep,FAILED
115,2018-08-26,Race Day!,FAILED
